<?xml version="1.0" encoding="iso-8859-1"?>
<!-- Generator: Adobe Illustrator 18.1.1, SVG Export Plug-In . SVG Version: 6.00 Build 0)  -->
<svg version="1.0" id="Calque_1" xmlns="http://www.w3.org/2000/svg" xmlns:xlink="http://www.w3.org/1999/xlink" x="0px" y="0px"
	 viewBox="0 0 180 70" style="enable-background:new 0 0 180 70;" xml:space="preserve">
<g>
	<g>
		<path d="M92.39,12.215V7.259c0-0.725-0.483-1.209-1.209-1.209s-1.209,0.483-1.209,1.209v4.956v11.362v29.614
			c-4.714,0.604-8.461,4.714-8.461,9.549c0,0.725,0.483,1.209,1.209,1.209h16.922c0.725,0,1.209-0.483,1.209-1.209
			c0-4.956-3.747-8.945-8.461-9.549V23.698V12.215z M98.071,61.653H83.808c0.604-3.384,3.505-6.044,7.132-6.044
			C94.566,55.609,97.467,58.268,98.071,61.653z"/>
	</g>
	<g>
		<path d="M97.044,19.308h11l-8.582,19.34l0,0c0,0.121,0,0.121,0,0.242c0,0.121,0,0.121,0,0.242l0,0
			c0,5.802,4.714,10.516,10.516,10.516c5.439-0.121,10.153-4.835,10.153-10.637l0,0c0-0.121,0-0.121,0-0.242
			c0-0.121,0-0.242,0-0.242l0,0l-9.307-20.911c-0.121-0.483-0.604-0.846-1.088-0.846H96.802H85.44H72.627
			c-0.483,0-0.967,0.363-1.088,0.846l-9.307,20.911l0,0c0,0.121,0,0.121,0,0.242c0,0.121,0,0.121,0,0.242l0,0
			c0,5.802,4.714,10.516,10.516,10.516c5.802,0,10.516-4.714,10.516-10.516l0,0c0-0.121,0-0.121,0-0.242c0-0.121,0-0.242,0-0.242
			l0,0l-8.582-19.34h11L97.044,19.308z M117.109,37.802h-14.867L109.615,21L117.109,37.802z M72.627,21L80,37.802H65.133L72.627,21z
			 M72.627,47.109c-3.989,0-7.373-3.022-7.978-6.89h15.955C80,44.087,76.616,47.109,72.627,47.109z M94.505,17.978L94.505,17.978
			L94.505,17.978 M87.736,18.099L87.736,18.099L87.736,18.099 M109.615,47.109c-3.989,0-7.373-3.022-7.978-6.89h15.955
			C116.988,44.087,113.724,47.109,109.615,47.109z"/>
	</g>
	<g>
		<path style="fill:#FFFFFF;" d="M91.246,22.5c-2.533,0-4.594-2.061-4.594-4.594s2.061-4.594,4.594-4.594s4.594,2.061,4.594,4.594
			S93.779,22.5,91.246,22.5z"/>
		<path d="M91.246,14.562c1.844,0,3.344,1.5,3.344,3.344s-1.5,3.344-3.344,3.344s-3.344-1.5-3.344-3.344
			S89.402,14.562,91.246,14.562 M91.246,12.062c-3.227,0-5.844,2.616-5.844,5.844s2.616,5.844,5.844,5.844s5.844-2.616,5.844-5.844
			S94.474,12.062,91.246,12.062L91.246,12.062z"/>
	</g>
</g>
</svg>
